{
    "name": "Solitaire",
    "icon": "Solitaire.png",
    "playerHasHand": false,
    "showAllPlayerHands": false,
    "playerCount" : 1,
    "meShowRows": 3,
    "meShowColumns": 7,
    "othersShowRows": 0,
    "othersShowColumns": 0,
    "meSpace": 1.0,
    "commonSpace": 0.0,
    "opponentSpace": 0.0,
    "playerDecks": {
        "rows": 3,
        "columns": 7,
        "decks": [
            { "row": 0, "column": 0, "rowSpan": 1, "columnSpan": 2, "type": "NextCardDeck", "faceUp": true, "dealCount": -1 },
            { "row": 0, "column": 3, "rowSpan": 1, "columnSpan": 1, "type": "Deck", "faceUp": true, "allowedValue": "OneMore", "allowedFamily": "SameFamily", "allowMultiple": false, "dealCount": 0, "pullAllowed": true },
            { "row": 0, "column": 4, "rowSpan": 1, "columnSpan": 1, "type": "Deck", "faceUp": true, "allowedValue": "OneMore", "allowedFamily": "SameFamily", "allowMultiple": false, "dealCount": 0, "pullAllowed": true },
            { "row": 0, "column": 5, "rowSpan": 1, "columnSpan": 1, "type": "Deck", "faceUp": true, "allowedValue": "OneMore", "allowedFamily": "SameFamily", "allowMultiple": false, "dealCount": 0, "pullAllowed": true },
            { "row": 0, "column": 6, "rowSpan": 1, "columnSpan": 1, "type": "Deck", "faceUp": true, "allowedValue": "OneMore", "allowedFamily": "SameFamily", "allowMultiple": false, "dealCount": 0, "pullAllowed": true },

            { "row": 1, "column": 6, "rowSpan": 3, "columnSpan": 1, "type": "DeckPopTop", "allowedValue": "OneLess", "allowedFamily": "OtherColor", "allowMultiple": true, "dealCount": 6, "topDealCount": 1, "allowAutoPull": true },
            { "row": 1, "column": 5, "rowSpan": 3, "columnSpan": 1, "type": "DeckPopTop", "allowedValue": "OneLess", "allowedFamily": "OtherColor", "allowMultiple": true, "dealCount": 5, "topDealCount": 1, "allowAutoPull": true },
            { "row": 1, "column": 4, "rowSpan": 3, "columnSpan": 1, "type": "DeckPopTop", "allowedValue": "OneLess", "allowedFamily": "OtherColor", "allowMultiple": true, "dealCount": 4, "topDealCount": 1, "allowAutoPull": true },
            { "row": 1, "column": 3, "rowSpan": 3, "columnSpan": 1, "type": "DeckPopTop", "allowedValue": "OneLess", "allowedFamily": "OtherColor", "allowMultiple": true, "dealCount": 3, "topDealCount": 1, "allowAutoPull": true },
            { "row": 1, "column": 2, "rowSpan": 3, "columnSpan": 1, "type": "DeckPopTop", "allowedValue": "OneLess", "allowedFamily": "OtherColor", "allowMultiple": true, "dealCount": 2, "topDealCount": 1, "allowAutoPull": true },
            { "row": 1, "column": 1, "rowSpan": 3, "columnSpan": 1, "type": "DeckPopTop", "allowedValue": "OneLess", "allowedFamily": "OtherColor", "allowMultiple": true, "dealCount": 1, "topDealCount": 1, "allowAutoPull": true },
            { "row": 1, "column": 0, "rowSpan": 3, "columnSpan": 1, "type": "DeckPopTop", "allowedValue": "OneLess", "allowedFamily": "OtherColor", "allowMultiple": true, "dealCount": 0, "topDealCount": 1, "allowAutoPull": true }
        ]
    },
    "commonDecks": {
        "rows": 0,
        "columns": 0,
        "decks": []
    }
}
