<?xml version="1.0" encoding="UTF-8" standalone="no"?>
<!-- http://code.google.com/p/vector-playing-cards/ -->

<svg
   xmlns:dc="http://purl.org/dc/elements/1.1/"
   xmlns:cc="http://creativecommons.org/ns#"
   xmlns:rdf="http://www.w3.org/1999/02/22-rdf-syntax-ns#"
   xmlns:svg="http://www.w3.org/2000/svg"
   xmlns="http://www.w3.org/2000/svg"
   xmlns:xlink="http://www.w3.org/1999/xlink"
   xmlns:sodipodi="http://sodipodi.sourceforge.net/DTD/sodipodi-0.dtd"
   xmlns:inkscape="http://www.inkscape.org/namespaces/inkscape"
   width="159.76741pt"
   height="231.31438pt"
   viewBox="0 0 159.76741 231.31437"
   xml:space="preserve"
   id="svg2"
   version="1.1"
   inkscape:version="0.91 r13725"
   sodipodi:docname="AH.svg"
   inkscape:export-filename="/home/byron/art/cards/final/PNGs/A_of_hearts.png"
   inkscape:export-xdpi="215.44792"
   inkscape:export-ydpi="215.44792"><metadata
     id="metadata43"><rdf:RDF><cc:Work
         rdf:about=""><dc:format>image/svg+xml</dc:format><dc:type
           rdf:resource="http://purl.org/dc/dcmitype/StillImage" /><dc:title /></cc:Work></rdf:RDF></metadata><defs
     id="defs41"><radialGradient
       inkscape:collect="always"
       xlink:href="#linearGradient3773"
       id="radialGradient3781"
       cx="-0.15782039"
       cy="-8.8345356"
       fx="-0.15782039"
       fy="-8.8345356"
       r="7.9997029"
       gradientTransform="matrix(-1.5842693,-0.02349808,0.03071979,-2.4775745,-0.24856378,-26.713507)"
       gradientUnits="userSpaceOnUse" /><linearGradient
       id="linearGradient3773"><stop
         style="stop-color:#000000;stop-opacity:1;"
         offset="0"
         id="stop3775" /><stop
         style="stop-color:#000000;stop-opacity:0.64885497;"
         offset="1"
         id="stop3777" /></linearGradient><radialGradient
       inkscape:collect="always"
       xlink:href="#linearGradient3773"
       id="radialGradient3957"
       cx="-0.15782039"
       cy="-8.8345356"
       fx="-0.15782039"
       fy="-8.8345356"
       r="7.9997029"
       gradientTransform="matrix(-1.5842693,-0.02349808,0.03071979,-2.4775745,-0.24856378,-26.713507)"
       gradientUnits="userSpaceOnUse" /><linearGradient
       id="linearGradient3959"><stop
         style="stop-color:#000000;stop-opacity:1;"
         offset="0"
         id="stop3961" /><stop
         style="stop-color:#000000;stop-opacity:0.64885497;"
         offset="1"
         id="stop3963" /></linearGradient><radialGradient
       r="81.902771"
       fy="509.47577"
       fx="168.02475"
       cy="509.47577"
       cx="168.02475"
       gradientTransform="matrix(1.2565605,-0.77740644,0.33663816,0.5361257,-221.20213,359.24256)"
       gradientUnits="userSpaceOnUse"
       id="radialGradient3975"
       xlink:href="#linearGradient3784-4"
       inkscape:collect="always" /><linearGradient
       id="linearGradient3784-4"><stop
         style="stop-color:#ffffff;stop-opacity:0.4351145;"
         offset="0"
         id="stop3786-8" /><stop
         style="stop-color:#000000;stop-opacity:0;"
         offset="1"
         id="stop3788-6" /></linearGradient><radialGradient
       inkscape:collect="always"
       xlink:href="#linearGradient3784-4-5"
       id="radialGradient3929"
       gradientUnits="userSpaceOnUse"
       gradientTransform="matrix(1.2565605,-0.77740644,0.33663816,0.5361257,-221.20213,359.24256)"
       cx="168.02475"
       cy="509.47577"
       fx="168.02475"
       fy="509.47577"
       r="81.902771" /><linearGradient
       id="linearGradient3784-4-5"><stop
         style="stop-color:#ffffff;stop-opacity:0.48854962;"
         offset="0"
         id="stop3786-8-0" /><stop
         style="stop-color:#000000;stop-opacity:0;"
         offset="1"
         id="stop3788-6-3" /></linearGradient><radialGradient
       inkscape:collect="always"
       xlink:href="#linearGradient3784-4-1"
       id="radialGradient3927"
       gradientUnits="userSpaceOnUse"
       gradientTransform="matrix(1.2565605,-0.77740644,0.33663816,0.5361257,-221.20213,359.24256)"
       cx="168.02475"
       cy="509.47577"
       fx="168.02475"
       fy="509.47577"
       r="81.902771" /><linearGradient
       id="linearGradient3784-4-1"><stop
         style="stop-color:#ffffff;stop-opacity:0.23664123;"
         offset="0"
         id="stop3786-8-03" /><stop
         style="stop-color:#000000;stop-opacity:0;"
         offset="1"
         id="stop3788-6-6" /></linearGradient><radialGradient
       inkscape:collect="always"
       xlink:href="#linearGradient3768"
       id="radialGradient3776"
       cx="-0.20602037"
       cy="-4.5786963"
       fx="-0.20602037"
       fy="-4.5786963"
       r="8"
       gradientTransform="matrix(-1,0,0,-1.7201755,-0.41204074,-13.027194)"
       gradientUnits="userSpaceOnUse" /><linearGradient
       id="linearGradient3768"><stop
         style="stop-color:#df0000;stop-opacity:1;"
         offset="0"
         id="stop3770" /><stop
         style="stop-color:#df0000;stop-opacity:0.67175573;"
         offset="1"
         id="stop3772" /></linearGradient><radialGradient
       r="81.902771"
       fy="511.22299"
       fx="171.48665"
       cy="511.22299"
       cx="171.48665"
       gradientTransform="matrix(1.1529891,-0.67391547,0.39482025,0.67549043,-233.63262,270.40076)"
       gradientUnits="userSpaceOnUse"
       id="radialGradient4013"
       xlink:href="#linearGradient3784-4-6"
       inkscape:collect="always" /><linearGradient
       id="linearGradient3784-4-6"><stop
         style="stop-color:#ffffff;stop-opacity:0.31297711;"
         offset="0"
         id="stop3786-8-8" /><stop
         style="stop-color:#000000;stop-opacity:0;"
         offset="1"
         id="stop3788-6-8" /></linearGradient><filter
       inkscape:collect="always"
       id="filter3834-6"
       x="-0.13934441"
       width="1.2786888"
       y="-0.16242018"
       height="1.3248404"
       style="color-interpolation-filters:sRGB"><feGaussianBlur
         inkscape:collect="always"
         stdDeviation="9.5105772"
         id="feGaussianBlur3836-6" /></filter><radialGradient
       r="81.902771"
       fy="492.63205"
       fx="159.35434"
       cy="492.63205"
       cx="159.35434"
       gradientTransform="matrix(1.0894779,-0.71513803,0.44645273,0.65626582,-244.93331,290.9185)"
       gradientUnits="userSpaceOnUse"
       id="radialGradient4013-8"
       xlink:href="#linearGradient3784-4-2"
       inkscape:collect="always" /><linearGradient
       id="linearGradient3784-4-2"><stop
         style="stop-color:#ffffff;stop-opacity:0.29007635;"
         offset="0"
         id="stop3786-8-1" /><stop
         style="stop-color:#000000;stop-opacity:0;"
         offset="1"
         id="stop3788-6-5" /></linearGradient><filter
       inkscape:collect="always"
       id="filter3834-6-3"
       x="-0.13934441"
       width="1.2786888"
       y="-0.16242018"
       height="1.3248404"
       style="color-interpolation-filters:sRGB"><feGaussianBlur
         inkscape:collect="always"
         stdDeviation="9.5105772"
         id="feGaussianBlur3836-6-3" /></filter><radialGradient
       r="81.902771"
       fy="492.63205"
       fx="159.35434"
       cy="492.63205"
       cx="159.35434"
       gradientTransform="matrix(1.0894779,-0.71513803,0.44645273,0.65626582,-244.93331,290.9185)"
       gradientUnits="userSpaceOnUse"
       id="radialGradient3073"
       xlink:href="#linearGradient3784-4-2"
       inkscape:collect="always" /></defs><sodipodi:namedview
     pagecolor="#ffffff"
     bordercolor="#666666"
     borderopacity="1"
     objecttolerance="10"
     gridtolerance="10"
     guidetolerance="10"
     inkscape:pageopacity="0"
     inkscape:pageshadow="2"
     inkscape:window-width="1920"
     inkscape:window-height="1004"
     id="namedview39"
     showgrid="false"
     inkscape:zoom="1.7208768"
     inkscape:cx="67.105228"
     inkscape:cy="139.46521"
     inkscape:window-x="0"
     inkscape:window-y="0"
     inkscape:window-maximized="1"
     inkscape:current-layer="svg2"
     fit-margin-top="0"
     fit-margin-left="0"
     fit-margin-right="0"
     fit-margin-bottom="0" /><text
     xml:space="preserve"
     style="font-style:normal;font-weight:normal;font-size:32px;line-height:125%;font-family:'Bitstream Vera Sans';letter-spacing:0px;word-spacing:0px;fill:#df0000;fill-opacity:1;stroke:none"
     x="2.4626131"
     y="22.90625"
     id="text3788"
     sodipodi:linespacing="125%"><tspan
       sodipodi:role="line"
       id="tspan3790"
       x="2.4626131"
       y="22.90625"
       style="font-style:normal;font-variant:normal;font-weight:normal;font-stretch:normal;font-family:Arial;-inkscape-font-specification:Arial;fill:#df0000;fill-opacity:1">A</tspan></text>
<g
     transform="matrix(0.19686979,0,0,0.19686979,7.7668566,11.762636)"
     id="g3036"><g
       style="stroke:none"
       id="layer1-9"
       transform="matrix(34.670635,0,0,32.448413,363.65075,535.3979)"><path
         sodipodi:nodetypes="scsscss"
         d="M 3.676,-9 C 0.433,-9 0,-5.523 0,-5.523 0,-5.523 -0.433,-9 -3.676,-9 -5.946,-9 -8,-7.441 -8,-4.5 -8,-0.614 -1.4208493,3.2938141 0,9 1.35201,3.2985969 8,-0.614 8,-4.5 8,-7.441 5.946,-9 3.676,-9 Z"
         id="hl"
         inkscape:connector-curvature="0"
         style="fill:url(#radialGradient3776);fill-opacity:1;stroke:none" /></g><path
       transform="matrix(1.484247,0,0,1.537104,-80.688965,-450.59362)"
       sodipodi:nodetypes="cscsc"
       inkscape:connector-curvature="0"
       id="path3762-6-4"
       d="m 117.3013,604.26609 c 0,0 -8.06755,-94.94997 22.85715,-122.85714 34.76052,-31.36871 140,-11.42857 140,-11.42857 0,0 -71.5404,24.83762 -100,48.57143 -27.21033,22.69199 -62.85715,85.71428 -62.85715,85.71428 z"
       style="fill:url(#radialGradient4013);fill-opacity:1;stroke:none;filter:url(#filter3834-6)" /><path
       transform="matrix(1.153293,0.33782551,-0.32928251,1.4016433,422.93775,-451.90481)"
       sodipodi:nodetypes="cscsc"
       inkscape:connector-curvature="0"
       id="path3762-6-2-3"
       d="m 117.3013,604.26609 c 0,0 -8.06755,-94.94997 22.85715,-122.85714 34.76052,-31.36871 140,-11.42857 140,-11.42857 0,0 -63.09295,37.07057 -91.55255,60.80438 -27.21033,22.69199 -71.3046,73.48133 -71.3046,73.48133 z"
       style="fill:url(#radialGradient3073);fill-opacity:1;stroke:none;filter:url(#filter3834-6-3)" /></g><g
     transform="matrix(1.6743072,0,0,1.5669921,13.394458,41.278283)"
     id="layer1-9-6"
     style="fill:#df0000;fill-opacity:1"><path
       style="fill:#df0000;fill-opacity:1"
       inkscape:connector-curvature="0"
       id="hl-8"
       d="M 3.676,-9 C 0.433,-9 0,-5.523 0,-5.523 0,-5.523 -0.433,-9 -3.676,-9 -5.946,-9 -8,-7.441 -8,-4.5 -8,-0.614 -1.4208493,3.2938141 0,9 1.35201,3.2985969 8,-0.614 8,-4.5 8,-7.441 5.946,-9 3.676,-9 Z"
       sodipodi:nodetypes="scsscss" /></g><text
     xml:space="preserve"
     style="font-style:normal;font-weight:normal;font-size:32px;line-height:125%;font-family:'Bitstream Vera Sans';letter-spacing:0px;word-spacing:0px;fill:#df0000;fill-opacity:1;stroke:none"
     x="-157.30481"
     y="-208.40813"
     id="text3788-4"
     sodipodi:linespacing="125%"
     transform="scale(-1,-1)"><tspan
       sodipodi:role="line"
       id="tspan3790-3"
       x="-157.30481"
       y="-208.40813"
       style="font-style:normal;font-variant:normal;font-weight:normal;font-stretch:normal;font-family:Arial;-inkscape-font-specification:Arial;fill:#df0000;fill-opacity:1">A</tspan></text>
<g
     transform="matrix(-1.6743072,0,0,-1.5669921,146.37296,190.03609)"
     id="layer1-9-6-5"
     style="fill:#df0000;fill-opacity:1"><path
       style="fill:#df0000;fill-opacity:1"
       inkscape:connector-curvature="0"
       id="hl-8-1"
       d="M 3.676,-9 C 0.433,-9 0,-5.523 0,-5.523 0,-5.523 -0.433,-9 -3.676,-9 -5.946,-9 -8,-7.441 -8,-4.5 -8,-0.614 -1.4208493,3.2938141 0,9 1.35201,3.2985969 8,-0.614 8,-4.5 8,-7.441 5.946,-9 3.676,-9 Z"
       sodipodi:nodetypes="scsscss" /></g></svg>